Assignment3_Quant
…
anova1<- aov(travel_time ~ transpo_mode)
summary(anova1)

##                 Df   Sum Sq Mean Sq F value Pr(>F)    
## transpo_mode    10  1609522  160952   325.2 <2e-16 ***
## Residuals    27216 13472054     495                   
## ---
## Signif. codes:  0 '***' 0.001 '**' 0.01 '*' 0.05 '.' 0.1 ' ' 1

tukey1<- TukeyHSD(anova1)
as_tibble(cbind(pair = row.names(tukey1$transpo_mode), tukey1$transpo_mode))

## # A tibble: 55 x 5
##    pair                           diff        lwr        upr        `p adj`     
##    <chr>                          <chr>       <chr>      <chr>      <chr>       
##  1 Bus or trolley bus-Bicycle     20.1700259~ 15.227327~ 25.112724~ 0           
##  2 Car, truck, or van-Bicycle     6.41531404~ 2.0936597~ 10.736968~ 9.400482111~
##  3 Ferryboat-Bicycle              31.2394392~ 18.994576~ 43.484302~ 1.387778780~
##  4 Motorcycle-Bicycle             -5.1733812~ -28.22242~ 17.875658~ 0.999746839~
##  5 Other method-Bicycle           12.7127938~ 6.2260113~ 19.199576~ 1.552745432~
##  6 Railroad-Bicycle               45.7932853~ 40.554662~ 51.031907~ 0           
##  7 Streetcar or trolley car (car~ 19.5062797~ 9.2415966~ 29.770962~ 5.246695666~
##  8 Subway or elevated-Bicycle     21.2942546~ 16.637216~ 25.951293~ 0           
##  9 Taxicab-Bicycle                -0.8688869~ -9.590456~ 7.8526822~ 0.999999887~
## 10 Walked-Bicycle                 -6.7598030~ -11.50768~ -2.011918~ 0.000240514~
## # ... with 45 more rows
…
anova2<- aov(household_income ~ transpo_mode)
summary(anova2)

##                 Df    Sum Sq   Mean Sq F value Pr(>F)    
## transpo_mode    10 4.547e+12 4.547e+11   30.97 <2e-16 ***
## Residuals    27216 3.995e+14 1.468e+10                   
## ---
## Signif. codes:  0 '***' 0.001 '**' 0.01 '*' 0.05 '.' 0.1 ' ' 1

tukey2<- TukeyHSD(anova2)
as_tibble(cbind(pair = row.names(tukey2$transpo_mode), tukey2$transpo_mode))

## # A tibble: 55 x 5
##    pair                           diff        lwr        upr        `p adj`     
##    <chr>                          <chr>       <chr>      <chr>      <chr>       
##  1 Bus or trolley bus-Bicycle     -47052.358~ -73968.96~ -20135.75~ 1.004208410~
##  2 Car, truck, or van-Bicycle     -18757.788~ -42292.35~ 4776.7751~ 0.267036698~
##  3 Ferryboat-Bicycle              88101.6906~ 21419.469~ 154783.91~ 0.001069987~
##  4 Motorcycle-Bicycle             -14767.309~ -140286.1~ 110751.54~ 0.999999429~
##  5 Other method-Bicycle           -16180.475~ -51505.74~ 19144.792~ 0.928457411~
##  6 Railroad-Bicycle               47574.7608~ 19046.635~ 76102.885~ 4.335744520~
##  7 Streetcar or trolley car (car~ -43008.648~ -98907.34~ 12890.047~ 0.318361844~
##  8 Subway or elevated-Bicycle     -13732.266~ -39093.24~ 11628.709~ 0.813295116~
##  9 Taxicab-Bicycle                -57961.005~ -105456.3~ -10465.69~ 0.004120839~
## 10 Walked-Bicycle                 -40589.515~ -66445.21~ -14733.81~ 2.342671474~
## # ... with 45 more rows
…
